%YAML 1.1
%TAG !u! tag:unity3d.com,2011:
--- !u!1 &302254582273763381
GameObject:
  m_ObjectHideFlags: 0
  m_CorrespondingSourceObject: {fileID: 0}
  m_PrefabInstance: {fileID: 0}
  m_PrefabAsset: {fileID: 0}
  serializedVersion: 6
  m_Component:
  - component: {fileID: 3521407168168761082}
  - component: {fileID: 100542039348806296}
  m_Layer: 0
  m_Name: PlaneAttachLocator
  m_TagString: Untagged
  m_Icon: {fileID: 0}
  m_NavMeshLayer: 0
  m_StaticEditorFlags: 0
  m_IsActive: 1
--- !u!4 &3521407168168761082
Transform:
  m_ObjectHideFlags: 0
  m_CorrespondingSourceObject: {fileID: 0}
  m_PrefabInstance: {fileID: 0}
  m_PrefabAsset: {fileID: 0}
  m_GameObject: {fileID: 302254582273763381}
  m_LocalRotation: {x: 0, y: 0, z: 0, w: 1}
  m_LocalPosition: {x: 0, y: 0, z: 0}
  m_LocalScale: {x: 1, y: 1, z: 1}
  m_Children:
  - {fileID: 4759705530736114869}
  m_Father: {fileID: 0}
  m_RootOrder: 0
  m_LocalEulerAnglesHint: {x: 0, y: 0, z: 0}
--- !u!114 &100542039348806296
MonoBehaviour:
  m_ObjectHideFlags: 0
  m_CorrespondingSourceObject: {fileID: 0}
  m_PrefabInstance: {fileID: 0}
  m_PrefabAsset: {fileID: 0}
  m_GameObject: {fileID: 302254582273763381}
  m_Enabled: 1
  m_EditorHideFlags: 0
  m_Script: {fileID: 11500000, guid: dc67659b59a56b449b0e2928da264319, type: 3}
  m_Name: 
  m_EditorClassIdentifier: 
  _locatorTransformVisualizer: {fileID: 2207490770587037468}
  _showVisualizers: 0
  _isTransformFree: 0
  _planePoint: {x: 0, y: 0}
  _planeYaw: 0
--- !u!1001 &8079911034044615882
PrefabInstance:
  m_ObjectHideFlags: 0
  serializedVersion: 2
  m_Modification:
    m_TransformParent: {fileID: 3521407168168761082}
    m_Modifications:
    - target: {fileID: 4665234234726536658, guid: 084a54f7cf4c5364693f46b76a4386fc,
        type: 3}
      propertyPath: m_Name
      value: Basis
      objectReference: {fileID: 0}
    - target: {fileID: 4665234234726536658, guid: 084a54f7cf4c5364693f46b76a4386fc,
        type: 3}
      propertyPath: m_IsActive
      value: 1
      objectReference: {fileID: 0}
    - target: {fileID: 3615337928479338623, guid: 084a54f7cf4c5364693f46b76a4386fc,
        type: 3}
      propertyPath: m_LocalPosition.x
      value: 0
      objectReference: {fileID: 0}
    - target: {fileID: 3615337928479338623, guid: 084a54f7cf4c5364693f46b76a4386fc,
        type: 3}
      propertyPath: m_LocalPosition.y
      value: 0
      objectReference: {fileID: 0}
    - target: {fileID: 3615337928479338623, guid: 084a54f7cf4c5364693f46b76a4386fc,
        type: 3}
      propertyPath: m_LocalPosition.z
      value: 0
      objectReference: {fileID: 0}
    - target: {fileID: 3615337928479338623, guid: 084a54f7cf4c5364693f46b76a4386fc,
        type: 3}
      propertyPath: m_LocalRotation.x
      value: 0
      objectReference: {fileID: 0}
    - target: {fileID: 3615337928479338623, guid: 084a54f7cf4c5364693f46b76a4386fc,
        type: 3}
      propertyPath: m_LocalRotation.y
      value: 0
      objectReference: {fileID: 0}
    - target: {fileID: 3615337928479338623, guid: 084a54f7cf4c5364693f46b76a4386fc,
        type: 3}
      propertyPath: m_LocalRotation.z
      value: 0
      objectReference: {fileID: 0}
    - target: {fileID: 3615337928479338623, guid: 084a54f7cf4c5364693f46b76a4386fc,
        type: 3}
      propertyPath: m_LocalRotation.w
      value: 1
      objectReference: {fileID: 0}
    - target: {fileID: 3615337928479338623, guid: 084a54f7cf4c5364693f46b76a4386fc,
        type: 3}
      propertyPath: m_RootOrder
      value: 0
      objectReference: {fileID: 0}
    - target: {fileID: 3615337928479338623, guid: 084a54f7cf4c5364693f46b76a4386fc,
        type: 3}
      propertyPath: m_LocalEulerAnglesHint.x
      value: 0
      objectReference: {fileID: 0}
    - target: {fileID: 3615337928479338623, guid: 084a54f7cf4c5364693f46b76a4386fc,
        type: 3}
      propertyPath: m_LocalEulerAnglesHint.y
      value: 0
      objectReference: {fileID: 0}
    - target: {fileID: 3615337928479338623, guid: 084a54f7cf4c5364693f46b76a4386fc,
        type: 3}
      propertyPath: m_LocalEulerAnglesHint.z
      value: 0
      objectReference: {fileID: 0}
    - target: {fileID: 2551361422117591854, guid: 084a54f7cf4c5364693f46b76a4386fc,
        type: 3}
      propertyPath: m_Materials.Array.data[0]
      value: 
      objectReference: {fileID: 0}
    - target: {fileID: 3410344750656979880, guid: 084a54f7cf4c5364693f46b76a4386fc,
        type: 3}
      propertyPath: m_Materials.Array.data[0]
      value: 
      objectReference: {fileID: 0}
    - target: {fileID: 579572738204787714, guid: 084a54f7cf4c5364693f46b76a4386fc,
        type: 3}
      propertyPath: m_Materials.Array.data[0]
      value: 
      objectReference: {fileID: 0}
    - target: {fileID: 8436167186067196284, guid: 084a54f7cf4c5364693f46b76a4386fc,
        type: 3}
      propertyPath: m_Materials.Array.data[0]
      value: 
      objectReference: {fileID: 0}
    - target: {fileID: 8771658394626998081, guid: 084a54f7cf4c5364693f46b76a4386fc,
        type: 3}
      propertyPath: m_Mesh
      value: 
      objectReference: {fileID: 0}
    - target: {fileID: 8730494589173289466, guid: 084a54f7cf4c5364693f46b76a4386fc,
        type: 3}
      propertyPath: m_Materials.Array.data[0]
      value: 
      objectReference: {fileID: 0}
    - target: {fileID: 5969661160316108909, guid: 084a54f7cf4c5364693f46b76a4386fc,
        type: 3}
      propertyPath: m_Mesh
      value: 
      objectReference: {fileID: 0}
    - target: {fileID: 6837525242137925867, guid: 084a54f7cf4c5364693f46b76a4386fc,
        type: 3}
      propertyPath: m_Mesh
      value: 
      objectReference: {fileID: 0}
    - target: {fileID: 6804946442882496080, guid: 084a54f7cf4c5364693f46b76a4386fc,
        type: 3}
      propertyPath: m_Materials.Array.data[0]
      value: 
      objectReference: {fileID: 0}
    m_RemovedComponents: []
  m_SourcePrefab: {fileID: 100100000, guid: 084a54f7cf4c5364693f46b76a4386fc, type: 3}
--- !u!4 &4759705530736114869 stripped
Transform:
  m_CorrespondingSourceObject: {fileID: 3615337928479338623, guid: 084a54f7cf4c5364693f46b76a4386fc,
    type: 3}
  m_PrefabInstance: {fileID: 8079911034044615882}
  m_PrefabAsset: {fileID: 0}
--- !u!114 &2207490770587037468 stripped
MonoBehaviour:
  m_CorrespondingSourceObject: {fileID: 7963218935266288598, guid: 084a54f7cf4c5364693f46b76a4386fc,
    type: 3}
  m_PrefabInstance: {fileID: 8079911034044615882}
  m_PrefabAsset: {fileID: 0}
  m_GameObject: {fileID: 0}
  m_Enabled: 1
  m_EditorHideFlags: 0
  m_Script: {fileID: 11500000, guid: d1cf3fc73cbb96c4182d295c80243d2a, type: 3}
  m_Name: 
  m_EditorClassIdentifier: 
